module gitlab.com/emanueljoivo/nuveo-challenger

go 1.14

require (
	github.com/gorilla/mux v1.7.4
	github.com/jinzhu/gorm v1.9.12
	github.com/joho/godotenv v1.3.0
	github.com/lib/pq v1.1.1
	github.com/niemeyer/pretty v0.0.0-20200227124842-a10e7caefd8e // indirect
	github.com/nuveo/log v0.0.0-20190430190217-44d02db6bdf8
	github.com/satori/go.uuid v1.2.0
	github.com/streadway/amqp v0.0.0-20200108173154-1c71cc93ed71
	gopkg.in/check.v1 v1.0.0-20200227125254-8fa46927fb4f // indirect
)
